stepDefination\LoginToApplication.class
pages\BasePage.class
testng_listeners\ErrorUtil.class
pages\ProductPage.class
pages\LoginPage.class
pages\HomePage.class
pages\SearchPage.class
setup\AndroidSetup.class
testng_listeners\custom_listeners.class
com\TestRunner\CukesRunner.class
ExtentReportListener\ExtentReporterNG.class
